<?xml version="1.0" encoding="UTF-8"?>
<svg width="30px" height="30px" viewBox="0 0 30 30" version="1.1" xmlns="http://www.w3.org/2000/svg" xmlns:xlink="http://www.w3.org/1999/xlink">
    <!-- Generator: Sketch 48.1 (47250) - http://www.bohemiancoding.com/sketch -->
    <title>search</title>
    <desc>Created with Sketch.</desc>
    <defs></defs>
    <g id="Страница-товаров-" stroke="none" stroke-width="1" fill="none" fill-rule="evenodd" transform="translate(-964.000000, -235.000000)">
        <g id="Таблица-товаров" transform="translate(50.000000, 210.000000)" fill="#D0D1D3" fill-rule="nonzero">
            <g id="поиск">
                <g id="search" transform="translate(914.000000, 25.000000)">
                    <path d="M29.740519,28.4700665 L22.4484365,21.1796009 C24.4045243,18.9312639 25.5888224,15.9977827 25.5888224,12.7915743 C25.5888224,5.73392461 19.8469727,0 12.7944112,0 C5.73519627,0 0,5.7405765 0,12.7915743 C0,19.8425721 5.74184963,25.5831486 12.7944112,25.5831486 C16.0013307,25.5831486 18.9354624,24.3991131 21.1842981,22.443459 L28.4763806,29.7339246 C28.6493679,29.9068736 28.8822355,30 29.1084498,30 C29.334664,30 29.5675316,29.9135255 29.740519,29.7339246 C30.0864937,29.3880266 30.0864937,28.8159645 29.740519,28.4700665 Z M1.78975383,12.7915743 C1.78975383,6.72505543 6.72654691,1.79600887 12.7877578,1.79600887 C18.8556221,1.79600887 23.7857618,6.73170732 23.7857618,12.7915743 C23.7857618,18.8514412 18.8556221,23.7937916 12.7877578,23.7937916 C6.72654691,23.7937916 1.78975383,18.8580931 1.78975383,12.7915743 Z" id="Shape"></path>
                </g>
            </g>
        </g>
    </g>
</svg>